id,birthdate
910879893,19550606
944809995,20040731
934875618,19990821
953720281,19990630
905953715,19560729
970776875,20000926
921792423,19530402
939862294,19810129
953993095,19030901
936981304,19130227
919744092,20130427
977922040,19080413
912832973,19130514
920922611,19320707
953840173,19691124
955851620,20100503
940713666,20041105
974916891,19080627
905959056,19200823
981917378,19660802
900888256,20151030
934875269,19870315
974803019,19211119
981851739,20110525
993884864,19090420
910963920,19690517
945844505,19600602
900846450,19671105
931812887,19571003
940980487,19670527
952825295,19071107
975864160,19400614
971996046,20140829
967802136,19170102
931799370,20160510
989859931,19940424
999716615,19310320
912726491,20010319
984730576,19230526
929990413,19740718
948742243,19170209
995861474,19310710
977734273,19401205
988946423,19391015
946770115,19970228
985902479,19421201
971739225,20031019
996797001,19180409
941964993,20110626
925967656,19540421
965732352,19700609
998762109,19820907
980815177,19181231
957797563,19101226
975950624,19700305
992844796,19261019
905905226,19840704
919980269,19760920
916993038,20141019
938711587,19681207
900787257,19180213
983729643,19860805
926852703,19471215
904745640,19820927
976710418,19440807
927714720,19960106
917737150,19181126
910718115,20020407
977915768,19870808
934848308,19420516
928902469,19550803
978957158,19430110
985753414,19641108
970999451,19320921
997762083,19951214
969818349,19710726
978740646,19280706
991830293,19971201
962841300,19591124
987961618,19480807
903705700,19930129
947725225,20101031
934811794,19481003
995911500,19811107
962980485,20080817
927722352,19130106
987924219,19940514
918839039,20150527
992926488,19760219
971846248,19730210
905980773,19581001
931826123,19740222
921749456,19690528
945798597,19450428
951710133,19670216
926748138,19851122
905888196,19220227
956803492,20051201
957843175,19330207
963959873,19860708
907834849,19680801
972725022,19461020
925953157,19870603
903785572,19361125
942903425,19370120
947929517,19591117
939988578,19281018
910879888,19061021
921790001,19750221
980913563,19240320
947712922,19400512
970863272,19380122
922855618,19270827
955966356,19630127
906965669,19250711
932751765,19400718
904900786,19770719
969917766,19060301
923992037,20140316
962727848,19810520
924962990,19790127
938984946,19090111
952838142,19970602
950990019,19070806
997766601,19930626
957960852,19850516
906983714,20060110
996733606,19340423
900796034,20110216
954841893,19680727
924957782,19350512
945988485,19470701
915739003,19560803
949915692,19041115
971947079,19950427
932905579,19541113
934762859,19811127
960788943,19381218
949833454,19140829
917702796,19030501
913806733,19030620
900870084,19350923
928851407,19410201
993945405,19850717
945785499,19470219
951753770,19780206
952716358,20011008
947834333,19660402
948732670,19360621
979952170,19960612
972948245,19810723
907818102,19630321
981802882,19761231
988735580,19350918
953735309,19570825
935862508,19241230
918911982,19600304
921965464,20060917
936984736,19310505
922966960,19510318
982832865,19080715
962836624,19760425
935879483,19900120
931875747,19510904
946759210,20040621
946921559,20150127
932865961,20130122
973838542,19661026
905762129,19200513
995735391,19880204
997909219,19440528
925829804,19640419
942912030,19760402
915815875,19170522
983860691,19290405
954945157,19761026
923744758,20030808
911823157,19601222
927971167,19310502
960709748,20000403
951859454,19950721
993778713,19880215
978733772,19780225
959987609,19681003
959970271,19190623
960772600,19991222
904725431,19680715
990870274,19740802
933940968,19740607
919967465,19220216
952986554,19880302
954784092,19620120
938953940,19300324
985817174,19270917
965797249,19110205
917718779,19080820
972842416,19181012
939701733,19470615
949800547,20100114
986839447,19920904
943817617,19921212
942915712,19550601
935732458,20190105
983808716,19440224
956726923,19600520
918993869,19830811
989756142,19641113
916924802,19700330
936709820,19611008
988770201,19780513
963751307,19440105
941942166,19240320
969996661,20140228
952867287,19031026
905787900,19310822
956764297,20120711
962865135,20180124
972907369,19840501
900963952,19200503
971903988,19730724
906770621,20000806
953955737,19610210
980886340,19740807
976984123,19311114
996809189,20040404
973909495,19651028
937908760,19780627
914851999,19980729
957800801,19770107
986737609,19420507
930907909,19340119
915793040,19360110
975886022,19400219
960908739,19820702
934738733,19210218
988963251,19631004
989813261,19820423
933967878,19481212
994728288,19580528
946873019,19601115
947998763,19910907
962701484,19421104
991987817,19970808
925960712,19571003
953799400,19760617
976905689,19970915
935963229,20070101
983821498,19181023
937848325,20160803
993977435,19930608
955823994,20150506
973847571,19040801
905876099,19880306
990950794,19770723
967766550,19220509
966770010,19450109
930823445,19551204
978976842,20120913
960719044,19350128
987816969,19510422
938994847,19240805
996908631,20010622
916952269,19190902
975954778,19181215
916858054,20040103
938863920,19850731
946982362,19570323
983814354,19090809
900759783,19970213
906793171,19220711
935798303,19730117
993921527,20081203
964988088,20030219
945701515,19581120
971947093,19830912
967702621,19660111
963990582,19940929
999967667,19330915
907907112,20041020
910746371,20050423
937750661,20121012
947949919,19630517
982887973,19110511
970920894,19660510
919754984,19720419
918824340,19250120
978919327,19201230
933856476,19361025
940991977,19641007
951772199,19900304
965945535,19510515
999812677,19360217
903784469,19510622
970764368,19880606
961912524,19681202
931909099,19970124
935987282,19940430
991778447,19470823
926832002,20151202
958780961,19050529
900925052,19190503
933773516,20171013
931888333,20070205
968840663,19840531
973925172,19940226
977960013,19170411
957822507,19270123
917950541,19340909
903773522,19930304
928832151,20090314
965855210,19091022
946703327,19860625
954950561,19870906
917778840,19971218
915966605,19230911
975756927,20131229
906827100,19150428
940987553,19530627
963983573,19350626
935778908,19760327
986916947,19480206
915708496,19400415
990736311,19210216
900782128,19870920
962758673,20020520
909917518,19520216
973961900,19491107
917924885,20150213
955789516,19510105
963784265,19771113
938905946,19910117
906767406,19280629
935740916,19980208
996770533,20020802
963752682,19420103
968991005,19960120
901841145,20160228
925946739,20120706
988773630,19731126
988701216,19550414
986713252,19241213
966776101,19030715
970908462,20041103
903997359,19831217
906848265,19910109
950768696,19551203
949710995,19530316
974876670,19531116
998986179,20160510
936975014,19560807
972830059,19340115
942835682,19540129
960998644,19350421
986924822,19190130
925737699,19570225
944995393,19210703
943738458,20150210
950811380,19310804
981998979,19340830
906819138,20040519
958801880,19680727
960707051,19060214
946756356,19880705
941721004,19230729
958774348,19301026
986940105,19250327
912971447,19381105
907968845,19470121
993833668,19670603
914973793,19131020
905858175,19590109
985795369,19521004
993787759,19731105
939729789,19980501
934884036,19870122
931787470,19630110
970906915,19780124
938758719,19200911
937980285,19460124
947900112,19450510
989967462,19101107
905919380,19740305
914764188,20031125
905801631,20131115
926817931,19211107
968720793,19670521
960717131,19110924
941856289,19941026
987790824,19370522
962842004,19290503
991723632,19890703
952955462,19740312
941971925,19601123
969814929,20081121
980889894,19060113
984722572,19900106
918802857,20030130
980998572,19280729
907845513,19590219
971956444,19300619
924900850,19451127
919728309,20150204
926822598,19680229
964888085,19790304
928885677,19221011
999854810,20161228
964779359,19720811
947710995,19990919
939706028,19251031
979802909,19191108
936781237,20050623
936835150,19460828
989876935,19940826
907778540,19920404
955700645,19751214
938946654,19850411
976790243,20080330
931997995,19500127
997969469,19810525
909968252,20070119
935745773,19750303
947922684,19080509
937976084,19841224
997800029,19631217
926785695,20070914
980810091,19701115
941830481,19560514
900795465,20141102
960851148,19390107
968709436,19150127
989847125,19330921
909785985,19951123
927959717,19031011
963952048,19700625
939745281,19220711
944834059,19240715
900794060,19120119
938942103,20120708
977865009,19140826
989993397,20140706
918756423,19310113
999824033,19360428
956781612,20070427
944715498,19050927
924763314,19970420
946798009,19680821
940963058,19370926
931946815,19560517
950855631,19051114
939833488,19580221
939840041,20000206
967904666,19731117
952744037,19700730
933823197,19100320
907799293,19470616
931842044,20050601
967765467,19060616
954733713,19581220
958778083,19310825
930723929,19031022
988779677,19051114
925780802,19730415
935709478,19611015
934727771,19531011
976957039,19580330
952875185,19821227
935873712,19610201
908915246,20050626
941822796,19430607
943988523,19440620
921805801,19370716
973923569,19991117
970881327,20140408
982759482,19701214
961748623,20180706
983959338,19080827
919844140,19360813
992852959,19961116
953943343,19140906
982753351,19250804
963975875,19230701
901877585,19420221
911970352,19250324
983835711,19330108
957829785,19520105
910772130,20000118
942940478,19811115
956949868,20140822
946815423,19130319
993814696,19430323
973729004,19281209
988951495,20030507
951841705,19481111
964785736,20010912
947955486,19800721
932813685,19830724
918962715,20150515
936880300,19720427
966990409,19571004
926870694,19910827
919780021,19441019
976806845,20040810
954729192,19601121
970804326,19670724
940789304,19870117
956860910,19930606
987751218,19061006
968710854,19950126
995777890,19150506
928751175,19600903
928921153,19900326
913713311,19500604
986888560,19300630
947853268,19870226
994975960,19280402
954999537,19280226
973861860,20111125
953752440,19530726
997902484,19100114
965791698,19680810
965740530,19871130
906915489,19930319
908995755,19360617
906721773,19870215
978827318,20120828
997924708,19750223
948820893,20160729
920904388,19050310
932850730,19260509
991878790,19651212
970714853,19900105
913712622,19420525
950810157,19040511
929718850,20020331
958866895,19610331
996957464,19690317
903907507,19990927
913752936,19591211
952764175,19790211
991732401,19160930
933982246,19161109
941868044,20090308
987918222,19400113
917799819,19611203
921825627,19960606
914759987,19831120
922873770,19600415
909849458,19060621
982717003,19671017
971741883,19240124
999983214,19170610
998882305,19461203
980762750,19680908
912800228,20070915
918715332,19120806
967740086,19601209
926794917,19590116
940840693,19401217
969957677,19320517
971876408,19300707
925884150,19970105
927869339,19830422
978922785,19260130
911735966,19300428
935903685,19390326
954754374,20050627
966954178,19320204
999954267,19480922
996969527,20130620
974759179,19291105
952862333,19071216
944781200,19790501
977908205,19970816
945764153,20040611
950871221,19830620
980743820,19990312
970850608,19770914
928778832,19180215
916705273,19150724
950992149,19060724
924869888,19670909
978706160,19580912
976863778,19181104
913798171,20081115
960774324,19221115
908859822,19961221
984908915,19470111
906848578,19151027
914732418,20001022
977861754,19990501
925862189,19640110
981713296,19520108
981818600,20130104
964918577,19090826
949860926,19340804
905728917,20061117
915765013,19581125
942826758,19990129
969839011,19280819
974780813,19520731
960957794,19341013
910704555,19800329
938912691,19950111
931849555,19631101
988830183,19060223
929981330,19851018
934983847,19780517
941776537,19930310
960978562,19720410
951985472,20121113
924797745,19430330
989824505,19120228
969739659,19341010
950993592,19481019
925837040,19080211
918740106,19950123
997994029,19080523
955762862,19480203
906855669,19690727
968850662,19381224
970987494,20060702
998745602,19440110
958913157,19670125
965719237,19480603
985920850,19211025
915808063,19310629
990848344,19581012
972814749,19740705
985745603,19370701
939792168,19440526
985909339,19381027
917838643,19600529
915766610,19180524
981865137,20120828
907856470,19410322
986991502,19201102
901812876,19141020
944712587,19400211
976725463,19230222
915925576,19040912
925906376,20180517
968803821,19360430
962875534,19480113
972832275,19381118
993833489,19740915
985773565,19981031
908754813,19930306
916778520,19920907
971765883,19411201
990722829,19450503
926918417,20170221
965979044,19160612
982963676,19610309
928982343,19410709
979965972,19961117
917928443,19310801
943748184,20070713
962990053,19340823
980765843,19390520
963779637,19111129
941721134,19810911
929785684,19130317
935943977,20070308
968821779,20160409
919825885,19950916
913703666,19810221
988839472,20011107
999882356,19701229
974719295,20041201
982998729,19940122
956748922,20031105
918849539,19640124
906807626,19141121
953956754,19280128
990882483,20041031
994734526,19470409
998916428,20021201
900965612,19510720
979907458,19520402
905888444,19230505
959779148,19650322
912977575,19380918
905877658,20150104
920822692,19461023
995746159,19420710
968729759,19930215
961987317,19291124
973961974,19171018
900779707,19450930
954905591,20170612
942874093,19150131
981743412,19651018
940734587,19220212
919832698,19260324
911777140,19721101
917733518,19490428
996757299,20130328
961839454,19951203
951827916,19250203
933794345,19920923
958942529,19620202
962844621,20040316
982839386,19121112
913885638,20150815
984805876,19240509
923877481,19680627
909861638,20150815
949808835,20050417
970760730,20110822
998702200,19310104
930815128,19570302
948797615,19300413
990804340,19170420
993951474,19320415
915986505,19990124
968996242,20130120
985755720,19940919
996958865,19220130
932922902,19950620
999974236,19931119
901743129,19130605
966735279,19520204
947713816,20140301
908852970,19810714
901957296,19890625
998980722,19081111
998755243,19370701
909728022,19490426
972832614,19941103
998957670,19170221
950843445,19870621
931902045,19220710
932850726,20030731
931832222,19690606
972728389,19940118
926766820,19471110
974805632,19410722
913806108,19950307
987925557,19200602
934848650,19900701
987976931,19140413
940983926,19331228
990817167,19630610
998817332,19490815
938759794,19230213
960735715,19140305
995777678,19910907
917887586,19370123
944758406,19300413
983881753,19320716
927927099,19030505
967912131,19610819
916770928,19480812
967741067,19840706
980816940,20030425
948943861,19080814
910841141,19870713
930727722,20140406
940921522,19141231
925848463,19510912
940876690,19830529
972960309,19790518
908889179,19670216
930716653,20140401
963762870,19760728
965733007,19240316
931994147,20090414
997741114,19390308
973873733,19111101
902917409,19300225
919752308,20000206
905752595,19490524
995806956,19180707
958836024,19990505
949854443,19620430
988923064,19540815
975812402,20170517
901954493,19060426
986983780,20030714
993984069,19341208
987948136,19121010
968924431,19900801
935869407,19281024
902743967,19801121
955753712,19790913
958785425,19640518
957821278,19221227
953956420,19871018
966732415,19981110
964957160,19460422
905874964,19480627
992824270,19490316
905791423,19170404
984905978,19840221
944733571,19311019
911905918,19300219
927744722,19570114
989758736,19400422
920906824,19701206
901705943,19100918
933985686,19871110
939784680,19071224
985718500,20080202
915753059,19370106
966977196,19560825
914929797,19440508
938724950,19230314
926786283,19080407
953972966,19871211
941724250,19160210
944951127,19651224
985716749,19160918
942969507,20161215
984742465,19641015
981960204,20071231
908918869,19300711
974795513,20070707
997868965,19570810
995721089,19710108
932716249,19660126
992833538,19271210
949782360,19420309
985861372,19990104
954754294,19590210
906996681,20120516
906746268,19330702
996916111,19990406
948886044,19750801
960777458,19930226
964995355,19530114
940782317,19840102
914737234,19521225
913736584,19551006
907704658,20080821
996879465,19100320
902725621,19500317
945825927,19750423
944741491,19620223
923827196,20100630
983989639,20170511
906845771,20061214
986864301,19470721
926795250,19450812
969863512,19520430
958772460,19871017
928700976,19870103
927982908,20110501
919999214,19340728
979913928,20100613
903743069,19561109
979815488,19441105
976850547,20030213
977758128,19211218
939959261,19940724
946994762,20111111
931843580,20040730
925955442,19751013
944833102,19820521
963762576,19940715
963817073,19981029
929983688,19530311
917802348,19410628
974758836,19250722
996971139,19590712
910836497,19920210
938705916,19990303
968805451,19840218
914857002,19580401
989953388,19730508
939772444,19960522
949913337,20121022
903726666,19190619
968878369,19060904
962796556,19951007
979796425,19771024
963721337,19531028
921868957,19580228
979786167,19620105
979926247,19410902
921915660,19370101
945918350,19391112
955835827,19890325
965704415,19580510
923985293,19270208
975921110,19710304
993916732,19170423
946766435,19470826
958864354,19420318
951908399,19970219
946907735,19160105
998808266,19781031
945883612,19700728
998924339,19061012
957916689,19440925
906776190,19610517
977907895,19380129
916942064,19720824
913790322,19491030
949953853,19801115
937949090,19391104
955940879,19560822
999700510,19230908
966750567,19110716
917826861,19210412
971951160,19350619
942782246,19450614
986920504,19390129
996841026,19041106
966720290,19530305
908764178,19530213
957942088,19530223
959945621,19200328
937748539,19370914
932928818,19180921
905887757,20140228
914724619,19690409
971767556,19891010
970998282,19940730
901756633,19190529
902831946,19540309
911740376,19790805
923850506,19840712
979982096,19861119
938745836,20040811
918922880,19810331
967711120,19940321
901705320,20030730
939810365,19060627
900727504,19250712
988807004,20120118
942987157,19190821
907860390,19630602
940975420,20110812
979903035,19840607
960811084,19190325
934862259,19730114
933717263,19441117
925721992,19150828
908719034,19730921
949771821,20181211
926851083,19081009
967787056,19410622
995818432,20020406
980787311,19450411
916971951,19330123
904737158,19631118
949995352,19581215
972801297,19630822
915820588,19651221
963808790,20081110
929726985,19440905
976975402,19540909
986790383,19920809
938703972,19870413
908866145,19721222
979786077,19541007
961986795,19241025
995805405,19360324
901992636,19970817
906950585,20051201
946953004,19290911
946925775,19490121
944717218,19640322
928814811,20040402
914828947,19691020
982840768,19220322
900847779,19860924
974746109,19820710
935954767,19571225
974924638,19500816
935777379,19110907
968876801,19460824
980908730,19560904
986842702,19480529
901768975,19320928
946993232,19701223
912911258,20050409
969942649,19040221
950799694,19360507
988770563,19740304
934873561,19850410
956907161,19060912
922782362,19901222
903779962,19261003
978802506,19280114
904773384,19790512
901883530,19440520
902787843,19831215
965945779,19711024
905875325,19200625
906855714,20140922
953995005,19340831
926903740,19470323
940816493,19651022
974963960,20050515
995808390,19260804
928850408,19400209
918912329,20070416
924775275,19361215
956908991,19860321
